03_vscode/uart.vcd
$date
	Mon May 20 16:11:57 2024
$end
$version
	Icarus Verilog
$end
$timescale
	1ps
$end
$scope module testbench_v2 $end
$var reg 1 ! btn $end
$var reg 1 " clk $end
$var reg 8 # t_leds [7:0] $end
$var reg 8 $ t_random_value [7:0] $end
$var reg 1 % t_reset_n $end
$var reg 1 & t_uart_tx $end
$var reg 2 ' uart_ez_state [1:0] $end
$var reg 1 ( uart_rx $end
$var integer 32 ) uart_bit [31:0] $end
$scope module dut $end
$var wire 1 " clk $end
$var wire 1 % reset_n $end
$var wire 1 & uart_rx $end
$var wire 1 * uart_tx $end
$var wire 8 + leds [7:0] $end
$var wire 1 , clk_30MHz $end
$var reg 1 - r_sync_0 $end
$var reg 1 . r_sync_1 $end
$scope module myPll $end
$var wire 1 " clkin $end
$var wire 1 / gw_gnd $end
$var wire 1 0 lock_o $end
$var wire 1 1 clkoutp_o $end
$var wire 1 2 clkoutd_o $end
$var wire 1 3 clkoutd3_o $end
$var wire 1 , clkout $end
$scope module rpll_inst $end
$var wire 1 / CLKFB $end
$var wire 1 " CLKIN $end
$var wire 1 , CLKOUT $end
$var wire 1 2 CLKOUTD $end
$var wire 1 3 CLKOUTD3 $end
$var wire 1 1 CLKOUTP $end
$var wire 4 4 DUTYDA [3:0] $end
$var wire 6 5 FBDIV_SEL_reg [5:0] $end
$var wire 6 6 FBDSEL [5:0] $end
$var wire 4 7 FDLY [3:0] $end
$var wire 6 8 IDIV_SEL_reg [5:0] $end
$var wire 6 9 IDSEL [5:0] $end
$var wire 1 0 LOCK $end
$var wire 6 : ODSEL [5:0] $end
$var wire 4 ; PSDA [3:0] $end
$var wire 1 / RESET $end
$var wire 1 / RESET_P $end
$var wire 1 < clk_div_src $end
$var wire 1 = div3_in $end
$var wire 1 > div_dyn_change $end
$var wire 1 ? resetn $end
$var wire 6 @ IDIV_dyn [5:0] $end
$var wire 6 A FBDIV_dyn [5:0] $end
$var reg 6 B FBDIV_SEL_reg1 [5:0] $end
$var reg 6 C IDIV_SEL_reg1 [5:0] $end
$var reg 6 D ODSEL_reg [5:0] $end
$var reg 1 E clk_effect $end
$var reg 1 F clk_out $end
$var reg 1 G clk_ps_reg $end
$var reg 1 H clk_ps_reg0 $end
$var reg 1 I clkfb $end
$var reg 1 J clkfb_init $end
$var reg 1 K clkfb_reg $end
$var reg 1 L clkin_init $end
$var reg 1 M clkout $end
$var reg 1 N clkout_div_reg $end
$var reg 1 O clkoutp $end
$var reg 1 P div3_init $end
$var reg 1 Q div3_reg $end
$var reg 1 R fb_clk_init $end
$var reg 1 S lock_reg $end
$var reg 1 T oclk_build $end
$var reg 1 U oclk_effect $end
$var reg 1 V pre_div3_in $end
$var integer 32 W FBDIV_reg [31:0] $end
$var real 1 X FB_dly $end
$var real 1 Y FB_dly0 $end
$var integer 32 Z IDIV_reg [31:0] $end
$var real 1 [ clk_tlock_cur $end
$var real 1 \ clkfb_curtime $end
$var real 1 ] clkin_curtime $end
$var real 1 ^ clkin_period $end
$var real 1 _ clkin_period1 $end
$var real 1 ` clkout_duty $end
$var real 1 a clkout_period $end
$var integer 32 b cnt_div [31:0] $end
$var integer 32 c cnt_div3 [31:0] $end
$var integer 32 d cnt_lock [31:0] $end
$var real 1 e curtime $end
$var real 1 f duty_value $end
$var real 1 g f_dly $end
$var real 1 h max_tlock $end
$var integer 32 i multi_clkin [31:0] $end
$var real 1 j pretime $end
$var real 1 k ps_dly $end
$var real 1 l ps_value $end
$var real 1 m real_fbdiv $end
$var real 1 n tclkout_half $end
$var real 1 o tclkout_half_new $end
$var real 1 p tclkp_duty $end
$var real 1 q unit_div $end
$upscope $end
$upscope $end
$scope module uart_m $end
$var wire 1 r btn1 $end
$var wire 1 , clk $end
$var wire 1 % reset_n $end
$var wire 1 . uart_rx $end
$var wire 1 s uart_tx $end
$var reg 1 t byteReady $end
$var reg 8 u dataIn [7:0] $end
$var reg 8 v dataOut [7:0] $end
$var reg 3 w e_rxState [2:0] $end
$var reg 8 x leds [7:0] $end
$var reg 3 y rxBitNumber [2:0] $end
$var reg 13 z rxCounter [12:0] $end
$var reg 3 { rxState [2:0] $end
$var reg 3 | txBitNumber [2:0] $end
$var reg 4 } txByteCounter [3:0] $end
$var reg 25 ~ txCounter [24:0] $end
$var reg 1 !" txPinRegister $end
$var reg 4 "" txState [3:0] $end
$upscope $end
$upscope $end
$scope task write_data $end
$var reg 8 #" wdata [7:0] $end
$upscope $end
$upscope $end
$enddefinitions $end
#0
$dumpvars
bx #"
b0 ""
1!"
b0 ~
b0 }
b0 |
b0 {
b0 z
b0 y
b0 x
b0 w
b0 v
b0 u
0t
1s
zr
r1 q
r0 p
r0 o
r0 n
r10 m
r0 l
r0 k
r0 j
bx i
r0 h
r0 g
r0 f
r0 e
b0 d
b0 c
b0 b
r0 a
r0 `
r0 _
r0 ^
r0 ]
r0 \
r0 [
b1 Z
r0 Y
r0 X
b1 W
0V
0U
0T
0S
1R
0Q
1P
0O
0N
0M
1L
0K
1J
0I
0H
0G
0F
0E
bx D
bx C
bx B
b0 A
b0 @
1?
x>
0=
0<
b0 ;
b0 :
b0 9
b1001 8
b0 7
b0 6
b1010 5
b0 4
03
02
01
00
0/
x.
x-
0,
b0 +
z*
bx )
1(
b0 '
1&
1%
b0 $
bx #
0"
1!
$end
#10
0>
b0 D
b1010 B
b1001 C
r0.01 e
0L
r0.01 ]
1"
#20
0"
#30
r0.03 e
r0.01 j
1"
#40
0"
#50
r0.003999999999999999 _
r0.05 e
r0.03 j
1"
#60
0"
#70
r0.008 _
r0.07000000000000001 e
r0.05 j
1"
#80
0"
#90
r0.012 _
r0.09 e
r0.07000000000000001 j
1"
#100
0"
#110
r0.016 _
1E
r0.0054 p
r0.0054 o
r0.0054 `
r0.0054 f
r0.0054 n
r0.0108 a
r0.012 ^
r0.11 e
r0.09 j
1"
#120
0"
#130
1V
1-
11
1G
1=
1,
1F
12
1N
1H
b0 b
1<
1M
1O
1I
1K
r0.02 _
0J
1U
b1 d
r0.007199999999999998 p
r0.007199999999999998 o
r0.007199999999999998 `
r0.007199999999999998 f
r0.007199999999999998 n
r0.0144 a
r0.016 ^
r0.13 e
r0.11 j
1"
#137
13
1Q
0V
01
0G
0P
0=
0,
0F
0H
0I
0<
0M
0O
0K
#140
0"
#144
11
1G
1V
1.
b1 c
1H
1=
1,
1F
02
0N
b0 b
1O
1<
1M
1I
1K
#150
10
1S
b10 d
r0.008999999999999999 p
r0.008999999999999999 o
r0.008999999999999999 `
r0.008999999999999999 f
r0.008999999999999999 n
r0.018 a
r0.02 ^
r0.15 e
r0.13 j
1"
#151
01
0G
0V
b10 c
0H
0=
0,
0F
0I
0O
0<
0M
0K
#160
03
0Q
1V
11
1G
b0 c
1=
1,
1F
12
1N
1H
b0 b
1<
1M
1O
1I
1K
0"
#169
0V
01
0G
b1 c
0=
0,
0F
0H
0I
0<
0M
0O
0K
#170
r0.02 _
b11 d
r0.17 e
r0.15 j
1"
#178
11
1G
1V
b10 c
1H
1=
1,
1F
02
0N
b0 b
1O
1<
1M
1I
1K
#180
0"
#187
01
0G
13
1Q
0V
b0 c
0H
0=
0,
0F
0I
0O
0<
0M
0K
#190
r0.02 _
b100 d
r0.008999999999999998 p
r0.008999999999999998 o
r0.008999999999999998 `
r0.008999999999999998 f
r0.008999999999999998 n
r0.018 a
r0.02 ^
r0.19 e
r0.17 j
1"
#196
1V
11
1G
b1 c
1=
1,
1F
12
1N
1H
b0 b
1<
1M
1O
1I
1K
#200
0"
#205
0V
01
0G
b10 c
0=
0,
0F
0H
0I
0<
0M
0O
0K
#210
b101 d
r0.008999999999999999 p
r0.008999999999999999 o
r0.008999999999999999 `
r0.008999999999999999 f
r0.008999999999999999 n
r0.018 a
r0.02 ^
r0.21 e
r0.19 j
1"
#214
11
1G
03
0Q
1V
b0 c
1H
1=
1,
1F
02
0N
b0 b
1O
1<
1M
1I
1K
#220
0"
#223
01
0G
0V
b1 c
0H
0=
0,
0F
0I
0O
0<
0M
0K
#230
r0.02 _
b110 d
r0.23 e
r0.21 j
1"
#232
1V
11
1G
b10 c
1=
1,
1F
12
1N
1H
b0 b
1<
1M
1O
1I
1K
#240
0"
#241
13
1Q
0V
01
0G
b0 c
0=
0,
0F
0H
0I
0<
0M
0O
0K
#250
11
1G
1V
b1 c
1H
1=
1,
1F
02
0N
b0 b
1O
1<
1M
1I
r0.02 _
b111 d
1K
r0.008999999999999998 p
r0.008999999999999998 o
r0.008999999999999998 `
r0.008999999999999998 f
r0.008999999999999998 n
r0.018 a
r0.02 ^
r0.25 e
r0.23 j
1"
#259
01
0G
0V
b10 c
0H
0=
0,
0F
0I
0O
0<
0M
0K
#260
0"
#268
03
0Q
1V
11
1G
b0 c
1=
1,
1F
12
1N
1H
b0 b
1<
1M
1O
1I
1K
#270
b1000 d
r0.008999999999999999 p
r0.008999999999999999 o
r0.008999999999999999 `
r0.008999999999999999 f
r0.008999999999999999 n
r0.018 a
r0.02 ^
r0.27 e
r0.25 j
1"
#277
0V
01
0G
b1 c
0=
0,
0F
0H
0I
0<
0M
0O
0K
#280
0"
#286
11
1G
1V
b10 c
1H
1=
1,
1F
02
0N
b0 b
1O
1<
1M
1I
1K
#290
b1001 d
r0.29 e
r0.27 j
1"
#295
01
0G
13
1Q
0V
b0 c
0H
0=
0,
0F
0I
0O
0<
0M
0K
#300
0"
#304
1V
11
1G
b1 c
1=
1,
1F
12
1N
1H
b0 b
1<
1M
1O
1I
1K
#310
r0.02 _
b1010 d
r0.31 e
r0.29 j
1"
#313
0V
01
0G
b10 c
0=
0,
0F
0H
0I
0<
0M
0O
0K
#320
0"
#322
11
1G
03
0Q
1V
b0 c
1H
1=
1,
1F
02
0N
b0 b
1O
1<
1M
1I
1K
#330
r0.02 _
b1011 d
r0.008999999999999998 p
r0.008999999999999998 o
r0.008999999999999998 `
r0.008999999999999998 f
r0.008999999999999998 n
r0.018 a
r0.02 ^
r0.33 e
r0.31 j
1"
#331
01
0G
0V
b1 c
0H
0=
0,
0F
0I
0O
0<
0M
0K
#340
1V
11
1G
b10 c
1=
1,
1F
12
1N
1H
b0 b
1<
1M
1O
1I
1K
0"
#349
13
1Q
0V
01
0G
b0 c
0=
0,
0F
0H
0I
0<
0M
0O
0K
#350
b1100 d
r0.008999999999999999 p
r0.008999999999999999 o
r0.008999999999999999 `
r0.008999999999999999 f
r0.008999999999999999 n
r0.018 a
r0.02 ^
r0.35 e
r0.33 j
1"
#358
11
1G
1V
b1 c
1H
1=
1,
1F
02
0N
b0 b
1O
1<
1M
1I
1K
#360
0"
#367
01
0G
0V
b10 c
0H
0=
0,
0F
0I
0O
0<
0M
0K
#370
r0.02 _
b1101 d
r0.37 e
r0.35 j
1"
#376
03
0Q
1V
11
1G
b0 c
1=
1,
1F
12
1N
1H
b0 b
1<
1M
1O
1I
1K
#380
0"
#385
0V
01
0G
b1 c
0=
0,
0F
0H
0I
0<
0M
0O
0K
#390
b1110 d
r0.008999999999999998 p
r0.008999999999999998 o
r0.008999999999999998 `
r0.008999999999999998 f
r0.008999999999999998 n
r0.018 a
r0.02 ^
r0.39 e
r0.37 j
1"
#394
11
1G
1V
b10 c
1H
1=
1,
1F
02
0N
b0 b
1O
1<
1M
1I
1K
#400
0"
#403
01
0G
13
1Q
0V
b0 c
0H
0=
0,
0F
0I
0O
0<
0M
0K
#410
r0.02000000000000001 _
b1111 d
r0.41 e
r0.39 j
1"
#412
1V
11
1G
b1 c
1=
1,
1F
12
1N
1H
b0 b
1<
1M
1O
1I
1K
#420
0"
#421
0V
01
0G
b10 c
0=
0,
0F
0H
0I
0<
0M
0O
0K
#430
11
1G
03
0Q
1V
b0 c
1H
1=
1,
1F
02
0N
b0 b
1O
1<
1M
1I
r0.02 _
b10000 d
1K
r0.009000000000000005 p
r0.009000000000000005 o
r0.009000000000000005 `
r0.009000000000000005 f
r0.009000000000000005 n
r0.01800000000000001 a
r0.02000000000000001 ^
r0.43 e
r0.41 j
1"
#439
01
0G
0V
b1 c
0H
0=
0,
0F
0I
0O
0<
0M
0K
#440
0"
#448
1V
11
1G
b10 c
1=
1,
1F
12
1N
1H
b0 b
1<
1M
1O
1I
1K
#450
b10001 d
r0.008999999999999998 p
r0.008999999999999998 o
r0.008999999999999998 `
r0.008999999999999998 f
r0.008999999999999998 n
r0.018 a
r0.02 ^
r0.45 e
r0.43 j
1"
#457
13
1Q
0V
01
0G
b0 c
0=
0,
0F
0H
0I
0<
0M
0O
0K
#460
0"
#466
11
1G
1V
b1 c
1H
1=
1,
1F
02
0N
b0 b
1O
1<
1M
1I
1K
#470
r0.02000000000000001 _
b10010 d
r0.47 e
r0.45 j
1"
#475
01
0G
0V
b10 c
0H
0=
0,
0F
0I
0O
0<
0M
0K
#480
0"
#484
03
0Q
1V
11
1G
b0 c
1=
1,
1F
12
1N
1H
b0 b
1<
1M
1O
1I
1K
#490
r0.02 _
b10011 d
r0.009000000000000005 p
r0.009000000000000005 o
r0.009000000000000005 `
r0.009000000000000005 f
r0.009000000000000005 n
r0.01800000000000001 a
r0.02000000000000001 ^
r0.49 e
r0.47 j
1"
#493
0V
01
0G
b1 c
0=
0,
0F
0H
0I
0<
0M
0O
0K
#500
0"
#502
11
1G
1V
b10 c
1H
1=
1,
1F
02
0N
b0 b
1O
1<
1M
1I
1K
#510
b10100 d
r0.008999999999999998 p
r0.008999999999999998 o
r0.008999999999999998 `
r0.008999999999999998 f
r0.008999999999999998 n
r0.018 a
r0.02 ^
r0.51 e
r0.49 j
1"
#511
01
0G
13
1Q
0V
b0 c
0H
0=
0,
0F
0I
0O
0<
0M
0K
#520
1V
11
1G
b1 c
1=
1,
1F
12
1N
1H
b0 b
1<
1M
1O
1I
1K
0"
#529
0V
01
0G
b10 c
0=
0,
0F
0H
0I
0<
0M
0O
0K
#530
r0.02000000000000001 _
b10101 d
r0.53 e
r0.51 j
1"
#538
11
1G
03
0Q
1V
b0 c
1H
1=
1,
1F
02
0N
b0 b
1O
1<
1M
1I
1K
#540
0"
#547
01
0G
0V
b1 c
0H
0=
0,
0F
0I
0O
0<
0M
0K
#550
b10110 d
r0.009000000000000005 p
r0.009000000000000005 o
r0.009000000000000005 `
r0.009000000000000005 f
r0.009000000000000005 n
r0.01800000000000001 a
r0.02000000000000001 ^
r0.55 e
r0.53 j
1"
#556
1V
11
1G
b10 c
1=
1,
1F
12
1N
1H
b0 b
1<
1M
1O
1I
1K
#560
0"
#565
13
1Q
0V
01
0G
b0 c
0=
0,
0F
0H
0I
0<
0M
0O
0K
#570
b10111 d
r0.57 e
r0.55 j
1"
#574
11
1G
1V
b1 c
1H
1=
1,
1F
02
0N
b0 b
1O
1<
1M
1I
1K
#580
0"
#583
01
0G
0V
b10 c
0H
0=
0,
0F
0I
0O
0<
0M
0K
#590
r0.02 _
b11000 d
r0.59 e
r0.57 j
1"
#592
03
0Q
1V
11
1G
b0 c
1=
1,
1F
12
1N
1H
b0 b
1<
1M
1O
1I
1K
#600
0"
#601
0V
01
0G
b1 c
0=
0,
0F
0H
0I
0<
0M
0O
0K
#610
11
1G
1V
b10 c
1H
1=
1,
1F
02
0N
b0 b
1O
1<
1M
1I
b11001 d
1K
r0.008999999999999998 p
r0.008999999999999998 o
r0.008999999999999998 `
r0.008999999999999998 f
r0.008999999999999998 n
r0.018 a
r0.02 ^
r0.61 e
r0.59 j
1"
#619
01
0G
13
1Q
0V
b0 c
0H
0=
0,
0F
0I
0O
0<
0M
0K
#620
0"
#628
1V
11
1G
b1 c
1=
1,
1F
12
1N
1H
b0 b
1<
1M
1O
1I
1K
#630
b11010 d
r0.63 e
r0.61 j
1"
#637
0V
01
0G
b10 c
0=
0,
0F
0H
0I
0<
0M
0O
0K
#640
0"
#646
11
1G
03
0Q
1V
b0 c
1H
1=
1,
1F
02
0N
b0 b
1O
1<
1M
1I
1K
#650
b11011 d
r0.65 e
r0.63 j
1"
#655
01
0G
0V
b1 c
0H
0=
0,
0F
0I
0O
0<
0M
0K
#660
0"
#664
1V
11
1G
b10 c
1=
1,
1F
12
1N
1H
b0 b
1<
1M
1O
1I
1K
#670
b11100 d
r0.67 e
r0.65 j
1"
#673
13
1Q
0V
01
0G
b0 c
0=
0,
0F
0H
0I
0<
0M
0O
0K
#680
0"
#682
11
1G
1V
b1 c
1H
1=
1,
1F
02
0N
b0 b
1O
1<
1M
1I
1K
#690
r0.02000000000000002 _
b11101 d
r0.6899999999999999 e
r0.67 j
1"
#691
01
0G
0V
b10 c
0H
0=
0,
0F
0I
0O
0<
0M
0K
#700
03
0Q
1V
11
1G
b0 c
1=
1,
1F
12
1N
1H
b0 b
1<
1M
1O
1I
1K
0"
#709
0V
01
0G
b1 c
0=
0,
0F
0H
0I
0<
0M
0O
0K
#710
r0.02 _
b11110 d
r0.009000000000000008 p
r0.009000000000000008 o
r0.009000000000000008 `
r0.009000000000000008 f
r0.009000000000000008 n
r0.01800000000000002 a
r0.02000000000000002 ^
r0.71 e
r0.6899999999999999 j
1"
#718
11
1G
1V
b10 c
1H
1=
1,
1F
02
0N
b0 b
1O
1<
1M
1I
1K
#720
0"
#727
01
0G
13
1Q
0V
b0 c
0H
0=
0,
0F
0I
0O
0<
0M
0K
#730
b11111 d
r0.008999999999999998 p
r0.008999999999999998 o
r0.008999999999999998 `
r0.008999999999999998 f
r0.008999999999999998 n
r0.018 a
r0.02 ^
r0.73 e
r0.71 j
1"
#736
1V
11
1G
b1 c
1=
1,
1F
12
1N
1H
b0 b
1<
1M
1O
1I
1K
#740
0"
#745
0V
01
0G
b10 c
0=
0,
0F
0H
0I
0<
0M
0O
0K
#750
b100000 d
r0.75 e
r0.73 j
1"
#754
11
1G
03
0Q
1V
b0 c
1H
1=
1,
1F
02
0N
b0 b
1O
1<
1M
1I
1K
#760
0"
#763
01
0G
0V
b1 c
0H
0=
0,
0F
0I
0O
0<
0M
0K
#770
b100001 d
r0.77 e
r0.75 j
1"
#772
1V
11
1G
b10 c
1=
1,
1F
12
1N
1H
b0 b
1<
1M
1O
1I
1K
#780
0"
#781
13
1Q
0V
01
0G
b0 c
0=
0,
0F
0H
0I
0<
0M
0O
0K
#790
11
1G
1V
b1 c
1H
1=
1,
1F
02
0N
b0 b
1O
1<
1M
1I
b100010 d
1K
r0.79 e
r0.77 j
1"
#799
01
0G
0V
b10 c
0H
0=
0,
0F
0I
0O
0<
0M
0K
#800
0"
#808
03
0Q
1V
11
1G
b0 c
1=
1,
1F
12
1N
1H
b0 b
1<
1M
1O
1I
1K
#810
r0.02000000000000002 _
b100011 d
r0.8100000000000001 e
r0.79 j
1"
#817
0V
01
0G
b1 c
0=
0,
0F
0H
0I
0<
0M
0O
0K
#820
0"
#826
11
1G
1V
b10 c
1H
1=
1,
1F
02
0N
b0 b
1O
1<
1M
1I
1K
#830
b100100 d
r0.009000000000000008 p
r0.009000000000000008 o
r0.009000000000000008 `
r0.009000000000000008 f
r0.009000000000000008 n
r0.01800000000000002 a
r0.02000000000000002 ^
r0.83 e
r0.8100000000000001 j
1"
#835
01
0G
13
1Q
0V
b0 c
0H
0=
0,
0F
0I
0O
0<
0M
0K
#840
0"
#844
1V
11
1G
b1 c
1=
1,
1F
12
1N
1H
b0 b
1<
1M
1O
1I
1K
#850
r0.02 _
b100101 d
r0.85 e
r0.83 j
1"
#853
0V
01
0G
b10 c
0=
0,
0F
0H
0I
0<
0M
0O
0K
#860
0"
#862
11
1G
03
0Q
1V
b0 c
1H
1=
1,
1F
02
0N
b0 b
1O
1<
1M
1I
1K
#870
b100110 d
r0.008999999999999998 p
r0.008999999999999998 o
r0.008999999999999998 `
r0.008999999999999998 f
r0.008999999999999998 n
r0.018 a
r0.02 ^
r0.87 e
r0.85 j
1"
#871
01
0G
0V
b1 c
0H
0=
0,
0F
0I
0O
0<
0M
0K
#880
1V
11
1G
b10 c
1=
1,
1F
12
1N
1H
b0 b
1<
1M
1O
1I
1K
0"
#889
13
1Q
0V
01
0G
b0 c
0=
0,
0F
0H
0I
0<
0M
0O
0K
#890
b100111 d
r0.89 e
r0.87 j
1"
#898
11
1G
1V
b1 c
1H
1=
1,
1F
02
0N
b0 b
1O
1<
1M
1I
1K
#900
0"
#907
01
0G
0V
b10 c
0H
0=
0,
0F
0I
0O
0<
0M
0K
#910
b101000 d
r0.91 e
r0.89 j
1"
#916
03
0Q
1V
11
1G
b0 c
1=
1,
1F
12
1N
1H
b0 b
1<
1M
1O
1I
1K
#920
0"
#925
0V
01
0G
b1 c
0=
0,
0F
0H
0I
0<
0M
0O
0K
#930
b101001 d
r0.93 e
r0.91 j
1"
#934
11
1G
1V
b10 c
1H
1=
1,
1F
02
0N
b0 b
1O
1<
1M
1I
1K
#940
0"
#943
01
0G
13
1Q
0V
b0 c
0H
0=
0,
0F
0I
0O
0<
0M
0K
#950
r0.02000000000000002 _
b101010 d
r0.95 e
r0.93 j
1"
#952
1V
11
1G
b1 c
1=
1,
1F
12
1N
1H
b0 b
1<
1M
1O
1I
1K
#960
0"
#961
0V
01
0G
b10 c
0=
0,
0F
0H
0I
0<
0M
0O
0K
#970
11
1G
03
0Q
1V
b0 c
1H
1=
1,
1F
02
0N
b0 b
1O
1<
1M
1I
r0.02 _
b101011 d
1K
r0.009000000000000008 p
r0.009000000000000008 o
r0.009000000000000008 `
r0.009000000000000008 f
r0.009000000000000008 n
r0.01800000000000002 a
r0.02000000000000002 ^
r0.97 e
r0.95 j
1"
#979
01
0G
0V
b1 c
0H
0=
0,
0F
0I
0O
0<
0M
0K
#980
0"
#988
1V
11
1G
b10 c
1=
1,
1F
12
1N
1H
b0 b
1<
1M
1O
1I
1K
#990
b101100 d
r0.008999999999999998 p
r0.008999999999999998 o
r0.008999999999999998 `
r0.008999999999999998 f
r0.008999999999999998 n
r0.018 a
r0.02 ^
r0.99 e
r0.97 j
1"
#997
13
1Q
0V
01
0G
b0 c
0=
0,
0F
0H
0I
0<
0M
0O
0K
#1000
0&
b1 '
0"
b10100101 #"
#1006
11
1G
1V
0-
b1 c
1H
1=
1,
1F
02
0N
b0 b
1O
1<
1M
1I
1K
#1010
1&
b10 '
b101101 d
r1.01 e
r0.99 j
b111 )
1"
#1015
01
0G
0V
b10 c
0H
0=
0,
0F
0I
0O
0<
0M
0K
#1020
0"
#1024
03
0Q
1V
1-
0.
11
1G
b0 c
1=
1,
1F
12
1N
1H
b0 b
1<
1M
1O
1I
1K
#1030
0&
b101110 d
r1.03 e
r1.01 j
b110 )
1"
#1033
0V
01
0G
b1 c
0=
0,
0F
0H
0I
0<
0M
0O
0K
#1040
0"
#1042
11
1G
1V
1.
0-
b1 z
b1 {
b10 c
1H
1=
1,
1F
02
0N
b0 b
1O
1<
1M
1I
1K
#1050
1&
b101111 d
r1.05 e
r1.03 j
b101 )
1"
#1051
01
0G
13
1Q
0V
b0 c
0H
0=
0,
0F
0I
0O
0<
0M
0K
#1060
1V
b10 z
1-
0.
11
1G
b1 c
1=
1,
1F
12
1N
1H
b0 b
1<
1M
1O
1I
1K
0"
#1069
0V
01
0G
b10 c
0=
0,
0F
0H
0I
0<
0M
0O
0K
#1070
r0.02000000000000002 _
0&
b110000 d
r1.07 e
r1.05 j
b100 )
1"
#1078
11
1G
03
0Q
1V
1.
0-
b11 z
b0 c
1H
1=
1,
1F
02
0N
b0 b
1O
1<
1M
1I
1K
#1080
0"
#1087
01
0G
0V
b1 c
0H
0=
0,
0F
0I
0O
0<
0M
0K
#1090
b110001 d
r0.009000000000000008 p
r0.009000000000000008 o
r0.009000000000000008 `
r0.009000000000000008 f
r0.009000000000000008 n
r0.01800000000000002 a
r0.02000000000000002 ^
r1.09 e
r1.07 j
b11 )
1"
#1096
1V
b100 z
0.
11
1G
b10 c
1=
1,
1F
12
1N
1H
b0 b
1<
1M
1O
1I
1K
#1100
0"
#1105
13
1Q
0V
01
0G
b0 c
0=
0,
0F
0H
0I
0<
0M
0O
0K
#1110
1&
b110010 d
r1.11 e
r1.09 j
b10 )
1"
#1114
11
1G
1V
1-
b101 z
b1 c
1H
1=
1,
1F
02
0N
b0 b
1O
1<
1M
1I
1K
#1120
0"
#1123
01
0G
0V
b10 c
0H
0=
0,
0F
0I
0O
0<
0M
0K
#1130
0&
b110011 d
r1.13 e
r1.11 j
b1 )
1"
#1132
03
0Q
1V
b110 z
0-
1.
11
1G
b0 c
1=
1,
1F
12
1N
1H
b0 b
1<
1M
1O
1I
1K
#1140
0"
#1141
0V
01
0G
b1 c
0=
0,
0F
0H
0I
0<
0M
0O
0K
#1150
11
1G
1V
0.
1-
b111 z
b10 c
1H
1=
1,
1F
02
0N
b0 b
1O
1<
1M
1I
r0.01999999999999997 _
1&
b110100 d
1K
r1.15 e
r1.13 j
b0 )
1"
#1159
01
0G
13
1Q
0V
b0 c
0H
0=
0,
0F
0I
0O
0<
0M
0K
#1160
0"
#1168
1V
b1000 z
1.
11
1G
b1 c
1=
1,
1F
12
1N
1H
b0 b
1<
1M
1O
1I
1K
#1170
b11 '
b110101 d
r0.008999999999999987 p
r0.008999999999999987 o
r0.008999999999999987 `
r0.008999999999999987 f
r0.008999999999999987 n
r0.01799999999999997 a
r0.01999999999999997 ^
r1.17 e
r1.15 j
b11111111111111111111111111111111 )
1"
#1177
0V
01
0G
b10 c
0=
0,
0F
0H
0I
0<
0M
0O
0K
#1180
0"
#1186
11
1G
03
0Q
1V
b1001 z
b0 c
1H
1=
1,
1F
02
0N
b0 b
1O
1<
1M
1I
1K
#1190
b111 )
b0 '
b110110 d
r1.19 e
r1.17 j
1"
#1195
01
0G
0V
b1 c
0H
0=
0,
0F
0I
0O
0<
0M
0K
#1200
0"
#1204
1V
b1010 z
11
1G
b10 c
1=
1,
1F
12
1N
1H
b0 b
1<
1M
1O
1I
1K
#1210
b110111 d
r1.21 e
r1.19 j
1"
#1213
13
1Q
0V
01
0G
b0 c
0=
0,
0F
0H
0I
0<
0M
0O
0K
#1220
0"
#1222
11
1G
1V
b1011 z
b1 c
1H
1=
1,
1F
02
0N
b0 b
1O
1<
1M
1I
1K
#1230
b111000 d
r1.23 e
r1.21 j
1"
#1231
01
0G
0V
b10 c
0H
0=
0,
0F
0I
0O
0<
0M
0K
#1240
03
0Q
1V
b1100 z
11
1G
b0 c
1=
1,
1F
12
1N
1H
b0 b
1<
1M
1O
1I
1K
0"
#1249
0V
01
0G
b1 c
0=
0,
0F
0H
0I
0<
0M
0O
0K
#1250
r0.02000000000000002 _
b111001 d
r1.25 e
r1.23 j
1"
#1258
11
1G
1V
b1101 z
b10 c
1H
1=
1,
1F
02
0N
b0 b
1O
1<
1M
1I
1K
#1260
0"
#1267
01
0G
13
1Q
0V
b0 c
0H
0=
0,
0F
0I
0O
0<
0M
0K
#1270
b111010 d
r0.009000000000000008 p
r0.009000000000000008 o
r0.009000000000000008 `
r0.009000000000000008 f
r0.009000000000000008 n
r0.01800000000000002 a
r0.02000000000000002 ^
r1.27 e
r1.25 j
1"
#1276
1V
b1110 z
11
1G
b1 c
1=
1,
1F
12
1N
1H
b0 b
1<
1M
1O
1I
1K
#1280
0"
#1285
0V
01
0G
b10 c
0=
0,
0F
0H
0I
0<
0M
0O
0K
#1290
b111011 d
r1.29 e
r1.27 j
1"
#1294
11
1G
03
0Q
1V
b1111 z
b0 c
1H
1=
1,
1F
02
0N
b0 b
1O
1<
1M
1I
1K
#1300
0"
#1303
01
0G
0V
b1 c
0H
0=
0,
0F
0I
0O
0<
0M
0K
#1310
b111100 d
r1.31 e
r1.29 j
1"
#1312
1V
b10000 z
11
1G
b10 c
1=
1,
1F
12
1N
1H
b0 b
1<
1M
1O
1I
1K
#1320
0"
#1321
13
1Q
0V
01
0G
b0 c
0=
0,
0F
0H
0I
0<
0M
0O
0K
#1330
11
1G
1V
b10001 z
b1 c
1H
1=
1,
1F
02
0N
b0 b
1O
1<
1M
1I
b111101 d
1K
r1.33 e
r1.31 j
1"
#1339
01
0G
0V
b10 c
0H
0=
0,
0F
0I
0O
0<
0M
0K
#1340
0"
#1348
03
0Q
1V
b10010 z
11
1G
b0 c
1=
1,
1F
12
1N
1H
b0 b
1<
1M
1O
1I
1K
#1350
b111110 d
r1.35 e
r1.33 j
1"
#1357
0V
01
0G
b1 c
0=
0,
0F
0H
0I
0<
0M
0O
0K
#1360
0"
#1366
11
1G
1V
b10011 z
b10 c
1H
1=
1,
1F
02
0N
b0 b
1O
1<
1M
1I
1K
#1370
b111111 d
r1.37 e
r1.35 j
1"
#1375
01
0G
13
1Q
0V
b0 c
0H
0=
0,
0F
0I
0O
0<
0M
0K
#1380
0"
#1384
1V
b10100 z
11
1G
b1 c
1=
1,
1F
12
1N
1H
b0 b
1<
1M
1O
1I
1K
#1390
b1000000 d
r1.39 e
r1.37 j
1"
#1393
0V
01
0G
b10 c
0=
0,
0F
0H
0I
0<
0M
0O
0K
#1400
0"
#1402
11
1G
03
0Q
1V
b10101 z
b0 c
1H
1=
1,
1F
02
0N
b0 b
1O
1<
1M
1I
1K
#1410
r0.01999999999999997 _
b1000001 d
r1.41 e
r1.39 j
1"
#1411
01
0G
0V
b1 c
0H
0=
0,
0F
0I
0O
0<
0M
0K
#1420
1V
b10110 z
11
1G
b10 c
1=
1,
1F
12
1N
1H
b0 b
1<
1M
1O
1I
1K
0"
#1429
13
1Q
0V
01
0G
b0 c
0=
0,
0F
0H
0I
0<
0M
0O
0K
#1430
b1000010 d
r0.008999999999999987 p
r0.008999999999999987 o
r0.008999999999999987 `
r0.008999999999999987 f
r0.008999999999999987 n
r0.01799999999999997 a
r0.01999999999999997 ^
r1.43 e
r1.41 j
1"
#1438
11
1G
1V
b10111 z
b1 c
1H
1=
1,
1F
02
0N
b0 b
1O
1<
1M
1I
1K
#1440
0"
